EESchema Schematic File Version 2
LIBS:74xgxx
LIBS:74xx
LIBS:ac-dc
LIBS:actel
LIBS:adc-dac
LIBS:Altera
LIBS:analog_devices
LIBS:analog_switches
LIBS:atmel
LIBS:audio
LIBS:brooktre
LIBS:cmos4000
LIBS:cmos_ieee
LIBS:conn
LIBS:contrib
LIBS:cypress
LIBS:dc-dc
LIBS:device
LIBS:digital-audio
LIBS:diode
LIBS:display
LIBS:dsp
LIBS:elec-unifil
LIBS:ESD_Protection
LIBS:ftdi
LIBS:gennum
LIBS:graphic
LIBS:hc11
LIBS:intel
LIBS:interface
LIBS:ir
LIBS:Lattice
LIBS:linear
LIBS:logo
LIBS:maxim
LIBS:memory
LIBS:microchip
LIBS:microchip_dspic33dsc
LIBS:microchip_pic10mcu
LIBS:microchip_pic12mcu
LIBS:microchip_pic16mcu
LIBS:microchip_pic18mcu
LIBS:microchip_pic32mcu
LIBS:microcontrollers
LIBS:motor_drivers
LIBS:motorola
LIBS:msp430
LIBS:nordicsemi
LIBS:nxp_armmcu
LIBS:onsemi
LIBS:opto
LIBS:Oscillators
LIBS:philips
LIBS:power
LIBS:powerint
LIBS:Power_Management
LIBS:pspice
LIBS:references
LIBS:regul
LIBS:relays
LIBS:rfcom
LIBS:sensors
LIBS:silabs
LIBS:siliconi
LIBS:stm8
LIBS:stm32
LIBS:supertex
LIBS:switches
LIBS:texas
LIBS:transf
LIBS:transistors
LIBS:ttl_ieee
LIBS:valves
LIBS:video
LIBS:Xicor
LIBS:xilinx
LIBS:Zilog
LIBS:project_custom_library
LIBS:Konina-cache
EELAYER 25 0
EELAYER END
$Descr A4 11693 8268
encoding utf-8
Sheet 1 1
Title "Konina"
Date "2016-01-25"
Rev "1.0"
Comp "Samsung Electronics Poland"
Comment1 "p.polawski@partner.samsung.com"
Comment2 ""
Comment3 ""
Comment4 ""
$EndDescr
$Comp
L FT4232H U3
U 1 1 56A61F28
P 5300 3700
F 0 "U3" H 4250 5800 50  0000 L CNN
F 1 "FT4232H" H 6050 5800 50  0000 L CNN
F 2 "Housings_QFP:LQFP-64_10x10mm_Pitch0.5mm" H 5300 3700 50  0001 C CNN
F 3 "" H 5300 3700 50  0000 C CNN
	1    5300 3700
	1    0    0    -1  
$EndComp
$Comp
L USB_OTG P9
U 1 1 56A729B4
P 800 1050
F 0 "P9" V 400 1200 50  0000 C CNN
F 1 "HOST USB" V 500 1050 50  0000 C CNN
F 2 "Connect:USB_Micro-B" V 750 950 50  0001 C CNN
F 3 "" V 750 950 50  0000 C CNN
	1    800  1050
	0    -1   1    0   
$EndComp
$Comp
L LM317_SOT223 U1
U 1 1 56A73D81
P 2200 1000
F 0 "U1" H 2200 1300 50  0000 C CNN
F 1 "LM1117_3.3" H 2250 750 50  0000 L CNN
F 2 "TO_SOT_Packages_SMD:SOT-223" H 2200 1000 50  0001 C CNN
F 3 "" H 2200 1000 50  0000 C CNN
	1    2200 1000
	1    0    0    -1  
$EndComp
$Comp
L LED D1
U 1 1 56A73E87
P 3350 1350
F 0 "D1" V 3400 1200 50  0000 C CNN
F 1 "POWER" V 3300 1150 50  0000 C CNN
F 2 "LEDs:LED_0805" H 3350 1350 50  0001 C CNN
F 3 "" H 3350 1350 50  0000 C CNN
	1    3350 1350
	0    -1   -1   0   
$EndComp
$Comp
L GND #PWR01
U 1 1 56A74294
P 700 1750
F 0 "#PWR01" H 700 1500 50  0001 C CNN
F 1 "GND" H 700 1600 50  0000 C CNN
F 2 "" H 700 1750 50  0000 C CNN
F 3 "" H 700 1750 50  0000 C CNN
	1    700  1750
	1    0    0    -1  
$EndComp
$Comp
L GND #PWR02
U 1 1 56A742B0
P 2200 1350
F 0 "#PWR02" H 2200 1100 50  0001 C CNN
F 1 "GND" H 2200 1200 50  0000 C CNN
F 2 "" H 2200 1350 50  0000 C CNN
F 3 "" H 2200 1350 50  0000 C CNN
	1    2200 1350
	1    0    0    -1  
$EndComp
$Comp
L GND #PWR03
U 1 1 56A742CC
P 1100 1250
F 0 "#PWR03" H 1100 1000 50  0001 C CNN
F 1 "GND" H 1100 1100 50  0000 C CNN
F 2 "" H 1100 1250 50  0000 C CNN
F 3 "" H 1100 1250 50  0000 C CNN
	1    1100 1250
	1    0    0    -1  
$EndComp
$Comp
L R R16
U 1 1 56A74470
P 1250 1300
F 0 "R16" H 1350 1350 50  0000 C CNN
F 1 "0R" H 1350 1250 50  0000 C CNN
F 2 "Resistors_SMD:R_0805_HandSoldering" V 1180 1300 50  0001 C CNN
F 3 "" H 1250 1300 50  0000 C CNN
	1    1250 1300
	1    0    0    -1  
$EndComp
$Comp
L R R20
U 1 1 56A744B5
P 700 1600
F 0 "R20" H 800 1650 50  0000 C CNN
F 1 "0R" H 800 1550 50  0000 C CNN
F 2 "Resistors_SMD:R_0805_HandSoldering" V 630 1600 50  0001 C CNN
F 3 "" H 700 1600 50  0000 C CNN
	1    700  1600
	1    0    0    -1  
$EndComp
$Comp
L GND #PWR04
U 1 1 56A744FE
P 1250 1450
F 0 "#PWR04" H 1250 1200 50  0001 C CNN
F 1 "GND" H 1250 1300 50  0000 C CNN
F 2 "" H 1250 1450 50  0000 C CNN
F 3 "" H 1250 1450 50  0000 C CNN
	1    1250 1450
	1    0    0    -1  
$EndComp
$Comp
L C C1
U 1 1 56A748D4
P 1700 1000
F 0 "C1" H 1725 1100 50  0000 L CNN
F 1 "100n" H 1725 900 50  0000 L CNN
F 2 "Capacitors_SMD:C_0805_HandSoldering" H 1738 850 50  0001 C CNN
F 3 "" H 1700 1000 50  0000 C CNN
	1    1700 1000
	1    0    0    -1  
$EndComp
$Comp
L GND #PWR05
U 1 1 56A74993
P 1700 1150
F 0 "#PWR05" H 1700 900 50  0001 C CNN
F 1 "GND" H 1700 1000 50  0000 C CNN
F 2 "" H 1700 1150 50  0000 C CNN
F 3 "" H 1700 1150 50  0000 C CNN
	1    1700 1150
	1    0    0    -1  
$EndComp
$Comp
L C C3
U 1 1 56A74AA0
P 3050 1000
F 0 "C3" H 3075 1100 50  0000 L CNN
F 1 "100n" H 3075 900 50  0000 L CNN
F 2 "Capacitors_SMD:C_0805_HandSoldering" H 3088 850 50  0001 C CNN
F 3 "" H 3050 1000 50  0000 C CNN
	1    3050 1000
	1    0    0    -1  
$EndComp
$Comp
L CP C2
U 1 1 56A74B0F
P 2800 1000
F 0 "C2" H 2825 1100 50  0000 L CNN
F 1 "10u" H 2825 900 50  0000 L CNN
F 2 "Capacitors_SMD:C_0805_HandSoldering" H 2838 850 50  0001 C CNN
F 3 "" H 2800 1000 50  0000 C CNN
	1    2800 1000
	1    0    0    -1  
$EndComp
$Comp
L R R1
U 1 1 56A74C5C
P 3350 1000
F 0 "R1" H 3500 1050 50  0000 C CNN
F 1 "220" H 3500 950 50  0000 C CNN
F 2 "Resistors_SMD:R_0805_HandSoldering" V 3280 1000 50  0001 C CNN
F 3 "" H 3350 1000 50  0000 C CNN
	1    3350 1000
	1    0    0    -1  
$EndComp
$Comp
L GND #PWR06
U 1 1 56A74D18
P 2800 1150
F 0 "#PWR06" H 2800 900 50  0001 C CNN
F 1 "GND" H 2800 1000 50  0000 C CNN
F 2 "" H 2800 1150 50  0000 C CNN
F 3 "" H 2800 1150 50  0000 C CNN
	1    2800 1150
	1    0    0    -1  
$EndComp
$Comp
L GND #PWR07
U 1 1 56A74D44
P 3050 1150
F 0 "#PWR07" H 3050 900 50  0001 C CNN
F 1 "GND" H 3050 1000 50  0000 C CNN
F 2 "" H 3050 1150 50  0000 C CNN
F 3 "" H 3050 1150 50  0000 C CNN
	1    3050 1150
	1    0    0    -1  
$EndComp
$Comp
L GND #PWR08
U 1 1 56A74D70
P 3350 1550
F 0 "#PWR08" H 3350 1300 50  0001 C CNN
F 1 "GND" H 3350 1400 50  0000 C CNN
F 2 "" H 3350 1550 50  0000 C CNN
F 3 "" H 3350 1550 50  0000 C CNN
	1    3350 1550
	1    0    0    -1  
$EndComp
$Comp
L +3.3V #PWR09
U 1 1 56A75B13
P 3350 850
F 0 "#PWR09" H 3350 700 50  0001 C CNN
F 1 "+3.3V" H 3350 990 50  0000 C CNN
F 2 "" H 3350 850 50  0000 C CNN
F 3 "" H 3350 850 50  0000 C CNN
	1    3350 850 
	1    0    0    -1  
$EndComp
$Comp
L +3.3V #PWR010
U 1 1 56A779E5
P 5500 1400
F 0 "#PWR010" H 5500 1250 50  0001 C CNN
F 1 "+3.3V" H 5500 1540 50  0000 C CNN
F 2 "" H 5500 1400 50  0000 C CNN
F 3 "" H 5500 1400 50  0000 C CNN
	1    5500 1400
	1    0    0    -1  
$EndComp
$Comp
L FILTER FB2
U 1 1 56A78C38
P 1500 2600
F 0 "FB2" H 1500 2750 50  0000 C CNN
F 1 "FILTER" H 1500 2500 50  0000 C CNN
F 2 "Choke_SMD:Choke_SMD_1206_Handsoldering" H 1500 2600 50  0001 C CNN
F 3 "" H 1500 2600 50  0000 C CNN
	1    1500 2600
	1    0    0    -1  
$EndComp
$Comp
L FILTER FB1
U 1 1 56A78EE6
P 1500 1950
F 0 "FB1" H 1500 2100 50  0000 C CNN
F 1 "FILTER" H 1500 1850 50  0000 C CNN
F 2 "Choke_SMD:Choke_SMD_1206_Handsoldering" H 1500 1950 50  0001 C CNN
F 3 "" H 1500 1950 50  0000 C CNN
	1    1500 1950
	1    0    0    -1  
$EndComp
$Comp
L C C8
U 1 1 56A7A45A
P 2100 2750
F 0 "C8" H 2125 2850 50  0000 L CNN
F 1 "100n" H 2125 2650 50  0000 L CNN
F 2 "Capacitors_SMD:C_0805_HandSoldering" H 2138 2600 50  0001 C CNN
F 3 "" H 2100 2750 50  0000 C CNN
	1    2100 2750
	1    0    0    -1  
$EndComp
$Comp
L C C6
U 1 1 56A7A4E5
P 2150 2100
F 0 "C6" H 2175 2200 50  0000 L CNN
F 1 "100n" H 2175 2000 50  0000 L CNN
F 2 "Capacitors_SMD:C_0805_HandSoldering" H 2188 1950 50  0001 C CNN
F 3 "" H 2150 2100 50  0000 C CNN
	1    2150 2100
	1    0    0    -1  
$EndComp
$Comp
L CP C7
U 1 1 56A7A533
P 1850 2750
F 0 "C7" H 1875 2850 50  0000 L CNN
F 1 "4.7u" H 1875 2650 50  0000 L CNN
F 2 "Capacitors_SMD:C_0805_HandSoldering" H 1888 2600 50  0001 C CNN
F 3 "" H 1850 2750 50  0000 C CNN
	1    1850 2750
	1    0    0    -1  
$EndComp
$Comp
L CP C5
U 1 1 56A7A5BA
P 1850 2100
F 0 "C5" H 1875 2200 50  0000 L CNN
F 1 "4.7u" H 1875 2000 50  0000 L CNN
F 2 "Capacitors_SMD:C_0805_HandSoldering" H 1888 1950 50  0001 C CNN
F 3 "" H 1850 2100 50  0000 C CNN
	1    1850 2100
	1    0    0    -1  
$EndComp
$Comp
L GND #PWR011
U 1 1 56A7BF48
P 1850 2250
F 0 "#PWR011" H 1850 2000 50  0001 C CNN
F 1 "GND" H 1850 2100 50  0000 C CNN
F 2 "" H 1850 2250 50  0000 C CNN
F 3 "" H 1850 2250 50  0000 C CNN
	1    1850 2250
	1    0    0    -1  
$EndComp
$Comp
L GND #PWR012
U 1 1 56A7C0AB
P 2150 2250
F 0 "#PWR012" H 2150 2000 50  0001 C CNN
F 1 "GND" H 2150 2100 50  0000 C CNN
F 2 "" H 2150 2250 50  0000 C CNN
F 3 "" H 2150 2250 50  0000 C CNN
	1    2150 2250
	1    0    0    -1  
$EndComp
$Comp
L GND #PWR013
U 1 1 56A7D402
P 1850 2900
F 0 "#PWR013" H 1850 2650 50  0001 C CNN
F 1 "GND" H 1850 2750 50  0000 C CNN
F 2 "" H 1850 2900 50  0000 C CNN
F 3 "" H 1850 2900 50  0000 C CNN
	1    1850 2900
	1    0    0    -1  
$EndComp
$Comp
L GND #PWR014
U 1 1 56A7D43D
P 2100 2900
F 0 "#PWR014" H 2100 2650 50  0001 C CNN
F 1 "GND" H 2100 2750 50  0000 C CNN
F 2 "" H 2100 2900 50  0000 C CNN
F 3 "" H 2100 2900 50  0000 C CNN
	1    2100 2900
	1    0    0    -1  
$EndComp
$Comp
L AT93C46 U5
U 1 1 56A7F5BA
P 2300 6950
F 0 "U5" H 2450 7350 60  0000 C CNN
F 1 "AT93C46" H 2550 6450 60  0000 C CNN
F 2 "SMD_Packages:SOIC-8-N" H 2300 6950 60  0001 C CNN
F 3 "" H 2300 6950 60  0000 C CNN
	1    2300 6950
	1    0    0    -1  
$EndComp
$Comp
L ST2378 U4
U 1 1 56A7F649
P 9900 2900
F 0 "U4" H 9400 3450 60  0000 C CNN
F 1 "ST2378" H 9500 2200 60  0000 C CNN
F 2 "Housings_SSOP:TSSOP-20_4.4x6.5mm_Pitch0.65mm" H 10000 2850 60  0001 C CNN
F 3 "" H 10000 2850 60  0000 C CNN
	1    9900 2900
	-1   0    0    -1  
$EndComp
$Comp
L +3.3V #PWR015
U 1 1 56A80877
P 4100 1650
F 0 "#PWR015" H 4100 1500 50  0001 C CNN
F 1 "+3.3V" H 4100 1790 50  0000 C CNN
F 2 "" H 4100 1650 50  0000 C CNN
F 3 "" H 4100 1650 50  0000 C CNN
	1    4100 1650
	1    0    0    -1  
$EndComp
$Comp
L +3.3V #PWR016
U 1 1 56A82238
P 1150 1950
F 0 "#PWR016" H 1150 1800 50  0001 C CNN
F 1 "+3.3V" H 1150 2090 50  0000 C CNN
F 2 "" H 1150 1950 50  0000 C CNN
F 3 "" H 1150 1950 50  0000 C CNN
	1    1150 1950
	1    0    0    -1  
$EndComp
$Comp
L +3.3V #PWR017
U 1 1 56A82279
P 1150 2600
F 0 "#PWR017" H 1150 2450 50  0001 C CNN
F 1 "+3.3V" H 1150 2740 50  0000 C CNN
F 2 "" H 1150 2600 50  0000 C CNN
F 3 "" H 1150 2600 50  0000 C CNN
	1    1150 2600
	1    0    0    -1  
$EndComp
Text Label 2150 1950 0    60   ~ 0
VPPL
Text Label 2100 2600 0    60   ~ 0
VPPHY
$Comp
L C C16
U 1 1 56A83839
P 5900 1000
F 0 "C16" H 5925 1100 50  0000 L CNN
F 1 "100n" H 5925 900 50  0000 L CNN
F 2 "Capacitors_SMD:C_0805_HandSoldering" H 5938 850 50  0001 C CNN
F 3 "" H 5900 1000 50  0000 C CNN
	1    5900 1000
	1    0    0    -1  
$EndComp
$Comp
L C C17
U 1 1 56A838A3
P 3100 7050
F 0 "C17" H 3125 7150 50  0000 L CNN
F 1 "100n" H 3125 6950 50  0000 L CNN
F 2 "Capacitors_SMD:C_0805_HandSoldering" H 3138 6900 50  0001 C CNN
F 3 "" H 3100 7050 50  0000 C CNN
	1    3100 7050
	1    0    0    -1  
$EndComp
$Comp
L GND #PWR018
U 1 1 56A83F38
P 5900 1150
F 0 "#PWR018" H 5900 900 50  0001 C CNN
F 1 "GND" H 5900 1000 50  0000 C CNN
F 2 "" H 5900 1150 50  0000 C CNN
F 3 "" H 5900 1150 50  0000 C CNN
	1    5900 1150
	1    0    0    -1  
$EndComp
$Comp
L GND #PWR019
U 1 1 56A83F8B
P 3100 7200
F 0 "#PWR019" H 3100 6950 50  0001 C CNN
F 1 "GND" H 3100 7050 50  0000 C CNN
F 2 "" H 3100 7200 50  0000 C CNN
F 3 "" H 3100 7200 50  0000 C CNN
	1    3100 7200
	1    0    0    -1  
$EndComp
$Comp
L GND #PWR020
U 1 1 56A83FDE
P 3400 7200
F 0 "#PWR020" H 3400 6950 50  0001 C CNN
F 1 "GND" H 3400 7050 50  0000 C CNN
F 2 "" H 3400 7200 50  0000 C CNN
F 3 "" H 3400 7200 50  0000 C CNN
	1    3400 7200
	1    0    0    -1  
$EndComp
$Comp
L GND #PWR021
U 1 1 56A84031
P 6200 1150
F 0 "#PWR021" H 6200 900 50  0001 C CNN
F 1 "GND" H 6200 1000 50  0000 C CNN
F 2 "" H 6200 1150 50  0000 C CNN
F 3 "" H 6200 1150 50  0000 C CNN
	1    6200 1150
	1    0    0    -1  
$EndComp
$Comp
L +3.3V #PWR022
U 1 1 56A841E8
P 3400 6900
F 0 "#PWR022" H 3400 6750 50  0001 C CNN
F 1 "+3.3V" H 3400 7040 50  0000 C CNN
F 2 "" H 3400 6900 50  0000 C CNN
F 3 "" H 3400 6900 50  0000 C CNN
	1    3400 6900
	1    0    0    -1  
$EndComp
$Comp
L +3.3V #PWR023
U 1 1 56A8423B
P 6200 850
F 0 "#PWR023" H 6200 700 50  0001 C CNN
F 1 "+3.3V" H 6200 990 50  0000 C CNN
F 2 "" H 6200 850 50  0000 C CNN
F 3 "" H 6200 850 50  0000 C CNN
	1    6200 850 
	1    0    0    -1  
$EndComp
Text Label 1100 950  0    60   ~ 0
HOST_D-
Text Label 1100 1050 0    60   ~ 0
HOST_D+
$Comp
L CP C4
U 1 1 56A86188
P 3850 2150
F 0 "C4" H 3875 2250 50  0000 L CNN
F 1 "3.3u" H 3875 2050 50  0000 L CNN
F 2 "Capacitors_SMD:C_0805_HandSoldering" H 3888 2000 50  0001 C CNN
F 3 "" H 3850 2150 50  0000 C CNN
	1    3850 2150
	1    0    0    -1  
$EndComp
$Comp
L GND #PWR024
U 1 1 56A86392
P 3850 2300
F 0 "#PWR024" H 3850 2050 50  0001 C CNN
F 1 "GND" H 3850 2150 50  0000 C CNN
F 2 "" H 3850 2300 50  0000 C CNN
F 3 "" H 3850 2300 50  0000 C CNN
	1    3850 2300
	1    0    0    -1  
$EndComp
Text Label 4900 1500 1    60   ~ 0
VPPL
Text Label 4800 1500 1    60   ~ 0
VPPHY
Text Label 4100 2900 2    60   ~ 0
HOST_D+
Text Label 4100 2800 2    60   ~ 0
HOST_D-
$Comp
L R R2
U 1 1 56A8D75D
P 3950 3100
F 0 "R2" V 3850 3100 50  0000 C CNN
F 1 "12k" V 4050 3100 50  0000 C CNN
F 2 "Resistors_SMD:R_0805_HandSoldering" V 3880 3100 50  0001 C CNN
F 3 "" H 3950 3100 50  0000 C CNN
	1    3950 3100
	0    1    1    0   
$EndComp
$Comp
L R R3
U 1 1 56A8D7FB
P 3550 3300
F 0 "R3" V 3450 3300 50  0000 C CNN
F 1 "1k" V 3650 3300 50  0000 C CNN
F 2 "Resistors_SMD:R_0805_HandSoldering" V 3480 3300 50  0001 C CNN
F 3 "" H 3550 3300 50  0000 C CNN
	1    3550 3300
	0    1    1    0   
$EndComp
$Comp
L GND #PWR025
U 1 1 56A8E054
P 3800 3400
F 0 "#PWR025" H 3800 3150 50  0001 C CNN
F 1 "GND" H 3800 3250 50  0000 C CNN
F 2 "" H 3800 3400 50  0000 C CNN
F 3 "" H 3800 3400 50  0000 C CNN
	1    3800 3400
	1    0    0    -1  
$EndComp
$Comp
L +3.3V #PWR026
U 1 1 56A8E108
P 3300 3200
F 0 "#PWR026" H 3300 3050 50  0001 C CNN
F 1 "+3.3V" H 3300 3340 50  0000 C CNN
F 2 "" H 3300 3200 50  0000 C CNN
F 3 "" H 3300 3200 50  0000 C CNN
	1    3300 3200
	1    0    0    -1  
$EndComp
$Comp
L +3.3V #PWR027
U 1 1 56A8EF30
P 2300 6450
F 0 "#PWR027" H 2300 6300 50  0001 C CNN
F 1 "+3.3V" H 2300 6590 50  0000 C CNN
F 2 "" H 2300 6450 50  0000 C CNN
F 3 "" H 2300 6450 50  0000 C CNN
	1    2300 6450
	1    0    0    -1  
$EndComp
$Comp
L GND #PWR028
U 1 1 56A8EF8C
P 2300 7550
F 0 "#PWR028" H 2300 7300 50  0001 C CNN
F 1 "GND" H 2300 7400 50  0000 C CNN
F 2 "" H 2300 7550 50  0000 C CNN
F 3 "" H 2300 7550 50  0000 C CNN
	1    2300 7550
	1    0    0    -1  
$EndComp
$Comp
L R R12
U 1 1 56A8F054
P 900 6600
F 0 "R12" H 1050 6650 50  0000 C CNN
F 1 "10k" H 1050 6550 50  0000 C CNN
F 2 "Resistors_SMD:R_0805_HandSoldering" V 830 6600 50  0001 C CNN
F 3 "" H 900 6600 50  0000 C CNN
	1    900  6600
	1    0    0    -1  
$EndComp
$Comp
L R R13
U 1 1 56A8F188
P 1200 6600
F 0 "R13" H 1350 6650 50  0000 C CNN
F 1 "10k" H 1350 6550 50  0000 C CNN
F 2 "Resistors_SMD:R_0805_HandSoldering" V 1130 6600 50  0001 C CNN
F 3 "" H 1200 6600 50  0000 C CNN
	1    1200 6600
	1    0    0    -1  
$EndComp
$Comp
L R R14
U 1 1 56A8F21E
P 1500 6600
F 0 "R14" H 1650 6650 50  0000 C CNN
F 1 "10k" H 1650 6550 50  0000 C CNN
F 2 "Resistors_SMD:R_0805_HandSoldering" V 1430 6600 50  0001 C CNN
F 3 "" H 1500 6600 50  0000 C CNN
	1    1500 6600
	1    0    0    -1  
$EndComp
$Comp
L +3.3V #PWR029
U 1 1 56A9037B
P 1500 6450
F 0 "#PWR029" H 1500 6300 50  0001 C CNN
F 1 "+3.3V" H 1500 6590 50  0000 C CNN
F 2 "" H 1500 6450 50  0000 C CNN
F 3 "" H 1500 6450 50  0000 C CNN
	1    1500 6450
	1    0    0    -1  
$EndComp
$Comp
L +3.3V #PWR030
U 1 1 56A903E0
P 1200 6450
F 0 "#PWR030" H 1200 6300 50  0001 C CNN
F 1 "+3.3V" H 1200 6590 50  0000 C CNN
F 2 "" H 1200 6450 50  0000 C CNN
F 3 "" H 1200 6450 50  0000 C CNN
	1    1200 6450
	1    0    0    -1  
$EndComp
$Comp
L +3.3V #PWR031
U 1 1 56A90445
P 900 6450
F 0 "#PWR031" H 900 6300 50  0001 C CNN
F 1 "+3.3V" H 900 6590 50  0000 C CNN
F 2 "" H 900 6450 50  0000 C CNN
F 3 "" H 900 6450 50  0000 C CNN
	1    900  6450
	1    0    0    -1  
$EndComp
$Comp
L R R15
U 1 1 56A90A29
P 650 6900
F 0 "R15" H 800 6950 50  0000 C CNN
F 1 "2.2k" H 800 6850 50  0000 C CNN
F 2 "Resistors_SMD:R_0805_HandSoldering" V 580 6900 50  0001 C CNN
F 3 "" H 650 6900 50  0000 C CNN
	1    650  6900
	1    0    0    -1  
$EndComp
Text Label 1650 6850 0    60   ~ 0
CS
Text Label 1650 6950 0    60   ~ 0
SK
Text Label 1650 7050 0    60   ~ 0
DI
Text Label 4100 4400 2    60   ~ 0
CS
Text Label 4100 4500 2    60   ~ 0
SK
Text Label 4100 4600 2    60   ~ 0
DI
$Comp
L +3.3V #PWR032
U 1 1 56A923DF
P 2750 6950
F 0 "#PWR032" H 2750 6800 50  0001 C CNN
F 1 "+3.3V" H 2750 7090 50  0000 C CNN
F 2 "" H 2750 6950 50  0000 C CNN
F 3 "" H 2750 6950 50  0000 C CNN
	1    2750 6950
	1    0    0    -1  
$EndComp
$Comp
L Crystal X1
U 1 1 56A9685D
P 3500 5300
F 0 "X1" H 3500 5450 50  0000 C CNN
F 1 "12MHz" H 3500 5150 50  0000 C CNN
F 2 "Crystals:Q_49U3HMS" H 3500 5300 50  0001 C CNN
F 3 "" H 3500 5300 50  0000 C CNN
	1    3500 5300
	1    0    0    -1  
$EndComp
$Comp
L C C12
U 1 1 56A97524
P 3250 5550
F 0 "C12" H 3050 5650 50  0000 L CNN
F 1 "27p" H 3275 5450 50  0000 L CNN
F 2 "Capacitors_SMD:C_0805_HandSoldering" H 3288 5400 50  0001 C CNN
F 3 "" H 3250 5550 50  0000 C CNN
	1    3250 5550
	1    0    0    -1  
$EndComp
$Comp
L C C13
U 1 1 56A975D3
P 3750 5550
F 0 "C13" H 3775 5650 50  0000 L CNN
F 1 "27p" H 3775 5450 50  0000 L CNN
F 2 "Capacitors_SMD:C_0805_HandSoldering" H 3788 5400 50  0001 C CNN
F 3 "" H 3750 5550 50  0000 C CNN
	1    3750 5550
	1    0    0    -1  
$EndComp
$Comp
L GND #PWR033
U 1 1 56A9798B
P 4700 5900
F 0 "#PWR033" H 4700 5650 50  0001 C CNN
F 1 "GND" H 4700 5750 50  0000 C CNN
F 2 "" H 4700 5900 50  0000 C CNN
F 3 "" H 4700 5900 50  0000 C CNN
	1    4700 5900
	1    0    0    -1  
$EndComp
$Comp
L GND #PWR034
U 1 1 56A9961E
P 3250 5700
F 0 "#PWR034" H 3250 5450 50  0001 C CNN
F 1 "GND" H 3250 5550 50  0000 C CNN
F 2 "" H 3250 5700 50  0000 C CNN
F 3 "" H 3250 5700 50  0000 C CNN
	1    3250 5700
	1    0    0    -1  
$EndComp
$Comp
L GND #PWR035
U 1 1 56A9968F
P 3750 5700
F 0 "#PWR035" H 3750 5450 50  0001 C CNN
F 1 "GND" H 3750 5550 50  0000 C CNN
F 2 "" H 3750 5700 50  0000 C CNN
F 3 "" H 3750 5700 50  0000 C CNN
	1    3750 5700
	1    0    0    -1  
$EndComp
$Comp
L +3.3V #PWR036
U 1 1 56A9A75B
P 9750 2200
F 0 "#PWR036" H 9750 2050 50  0001 C CNN
F 1 "+3.3V" H 9750 2340 50  0000 C CNN
F 2 "" H 9750 2200 50  0000 C CNN
F 3 "" H 9750 2200 50  0000 C CNN
	1    9750 2200
	1    0    0    -1  
$EndComp
$Comp
L GND #PWR037
U 1 1 56A9ABD0
P 9900 3700
F 0 "#PWR037" H 9900 3450 50  0001 C CNN
F 1 "GND" H 9900 3550 50  0000 C CNN
F 2 "" H 9900 3700 50  0000 C CNN
F 3 "" H 9900 3700 50  0000 C CNN
	1    9900 3700
	1    0    0    -1  
$EndComp
$Comp
L CONN_02X20 P5
U 1 1 56AAE74C
P 10150 5200
F 0 "P5" H 10150 6250 50  0000 C CNN
F 1 "HIKEY PINOUT" H 10150 3950 50  0000 C CNN
F 2 "project_custom_library:SMD_header_2x20_2mm" H 10150 4250 50  0001 C CNN
F 3 "" H 10150 4250 50  0000 C CNN
	1    10150 5200
	-1   0    0    -1  
$EndComp
Text Label 9900 4550 2    60   ~ 0
UART2_TX
Text Label 9900 4450 2    60   ~ 0
UART2_RX
Text Label 9900 4850 2    60   ~ 0
UART3_TX
Text Label 9900 4750 2    60   ~ 0
UART3_RX
Text Label 10400 4350 0    60   ~ 0
PMU_PWRON_N
Text Label 10400 4450 0    60   ~ 0
EXP_RSTOUT_N
$Comp
L CONN_02X02 P6
U 1 1 56AB7718
P 8600 5400
F 0 "P6" H 8600 5550 50  0000 C CNN
F 1 "HIKEY DEBUG UART" H 8600 5050 50  0000 C CNN
F 2 "project_custom_library:SMD_header_2x2_2mm" H 8600 4200 50  0001 C CNN
F 3 "" H 8600 4200 50  0000 C CNN
	1    8600 5400
	1    0    0    -1  
$EndComp
Text Label 8350 5450 2    60   ~ 0
UART0_RX
Text Label 8350 5350 2    60   ~ 0
UART0_TX
$Comp
L CONN_02X03 P4
U 1 1 56AB80BA
P 8600 6100
F 0 "P4" H 8600 6300 50  0000 C CNN
F 1 "HIKEY KEYS" H 8600 5850 50  0000 C CNN
F 2 "project_custom_library:SMD_header_2x3_2mm" H 8600 4900 50  0001 C CNN
F 3 "" H 8600 4900 50  0000 C CNN
	1    8600 6100
	1    0    0    -1  
$EndComp
Text Label 8850 6000 0    60   ~ 0
AUTO_PWR_A
Text Label 8850 6100 0    60   ~ 0
BOOT_SEL_A
Text Label 8850 6200 0    60   ~ 0
GPIO3_1_A
Text Label 8350 6000 2    60   ~ 0
AUTO_PWR_B
$Comp
L CONN_02X05 P7
U 1 1 56AB92FF
P 8600 4600
F 0 "P7" H 8600 4900 50  0000 C CNN
F 1 "HIKEY JTAG" H 8600 4200 50  0000 C CNN
F 2 "project_custom_library:SMD_header_2x5_1.27mm" H 8600 3400 50  0001 C CNN
F 3 "" H 8600 3400 50  0000 C CNN
	1    8600 4600
	1    0    0    -1  
$EndComp
Text Label 8850 4400 0    60   ~ 0
TMS
Text Label 8850 4500 0    60   ~ 0
TCK
Text Label 8850 4600 0    60   ~ 0
TDO
Text Label 8850 4700 0    60   ~ 0
TDI
Text Label 10050 2200 0    60   ~ 0
HIKEY_1V8
Text Label 10700 2950 0    60   ~ 0
UART3_TX
Text Label 10700 3050 0    60   ~ 0
UART3_RX
Text Label 10700 2850 0    60   ~ 0
UART2_RX
Text Label 10700 2750 0    60   ~ 0
UART2_TX
Text Label 10700 2650 0    60   ~ 0
UART0_RX
Text Label 10700 2550 0    60   ~ 0
UART0_TX
$Comp
L CP C18
U 1 1 56AED9CA
P 3400 7050
F 0 "C18" H 3425 7150 50  0000 L CNN
F 1 "10u" H 3425 6950 50  0000 L CNN
F 2 "Capacitors_SMD:C_0805_HandSoldering" H 3438 6900 50  0001 C CNN
F 3 "" H 3400 7050 50  0000 C CNN
	1    3400 7050
	1    0    0    -1  
$EndComp
$Comp
L CP C19
U 1 1 56AEDCAA
P 6200 1000
F 0 "C19" H 6225 1100 50  0000 L CNN
F 1 "10u" H 6225 900 50  0000 L CNN
F 2 "Capacitors_SMD:C_0805_HandSoldering" H 6238 850 50  0001 C CNN
F 3 "" H 6200 1000 50  0000 C CNN
	1    6200 1000
	1    0    0    -1  
$EndComp
$Comp
L SW_DIP_x3 S1
U 1 1 56B07FF5
P 1500 3450
F 0 "S1" H 1500 3650 50  0000 C CNN
F 1 "POWER MODES" H 1500 3200 50  0000 C CNN
F 2 "Buttons_Switches_ThroughHole:SW_DIP_x3_Slide" H 1450 3450 50  0001 C CNN
F 3 "" H 1450 3450 50  0000 C CNN
	1    1500 3450
	1    0    0    -1  
$EndComp
$Comp
L SW_PUSH SW3
U 1 1 56B0863C
P 1100 4450
F 0 "SW3" H 1250 4560 50  0000 C CNN
F 1 "RESET" H 1100 4370 50  0000 C CNN
F 2 "Buttons_Switches_SMD:SW_SPST_FSMSM" H 1100 4450 50  0001 C CNN
F 3 "" H 1100 4450 50  0000 C CNN
	1    1100 4450
	1    0    0    -1  
$EndComp
$Comp
L SW_PUSH SW2
U 1 1 56B0989C
P 1100 4100
F 0 "SW2" H 1250 4210 50  0000 C CNN
F 1 "ON/OFF" H 1100 4020 50  0000 C CNN
F 2 "Buttons_Switches_SMD:SW_SPST_FSMSM" H 1100 4100 50  0001 C CNN
F 3 "" H 1100 4100 50  0000 C CNN
	1    1100 4100
	1    0    0    -1  
$EndComp
$Comp
L GND #PWR038
U 1 1 56B09AE9
P 800 4450
F 0 "#PWR038" H 800 4200 50  0001 C CNN
F 1 "GND" H 800 4300 50  0000 C CNN
F 2 "" H 800 4450 50  0000 C CNN
F 3 "" H 800 4450 50  0000 C CNN
	1    800  4450
	1    0    0    -1  
$EndComp
$Comp
L GND #PWR039
U 1 1 56B09BAB
P 800 4100
F 0 "#PWR039" H 800 3850 50  0001 C CNN
F 1 "GND" H 800 3950 50  0000 C CNN
F 2 "" H 800 4100 50  0000 C CNN
F 3 "" H 800 4100 50  0000 C CNN
	1    800  4100
	1    0    0    -1  
$EndComp
Text Label 1200 3350 2    60   ~ 0
AUTO_PWR_A
Text Label 1200 3450 2    60   ~ 0
BOOT_SEL_A
Text Label 1200 3550 2    60   ~ 0
GPIO3_1_A
Text Label 1800 3350 0    60   ~ 0
AUTO_PWR_B
Text Label 1400 4100 0    60   ~ 0
PMU_PWRON_N
Text Label 1400 4450 0    60   ~ 0
EXP_RSTOUT_N
Text Label 9000 1150 0    60   ~ 0
TCK
Text Label 9000 1250 0    60   ~ 0
TDI
Text Label 9000 1350 0    60   ~ 0
TDO
Text Label 9000 1450 0    60   ~ 0
TMS
$Comp
L R R4
U 1 1 56B3740E
P 4050 6750
F 0 "R4" H 4200 6800 50  0000 C CNN
F 1 "220" H 4200 6700 50  0000 C CNN
F 2 "Resistors_SMD:R_0805_HandSoldering" V 3980 6750 50  0001 C CNN
F 3 "" H 4050 6750 50  0000 C CNN
	1    4050 6750
	1    0    0    -1  
$EndComp
$Comp
L LED D3
U 1 1 56B37502
P 4500 7100
F 0 "D3" V 4550 6950 50  0000 C CNN
F 1 "RED" V 4450 6900 50  0000 C CNN
F 2 "LEDs:LED_0805" H 4500 7100 50  0001 C CNN
F 3 "" H 4500 7100 50  0000 C CNN
	1    4500 7100
	0    -1   -1   0   
$EndComp
$Comp
L GND #PWR040
U 1 1 56B376E4
P 4050 7300
F 0 "#PWR040" H 4050 7050 50  0001 C CNN
F 1 "GND" H 4050 7150 50  0000 C CNN
F 2 "" H 4050 7300 50  0000 C CNN
F 3 "" H 4050 7300 50  0000 C CNN
	1    4050 7300
	1    0    0    -1  
$EndComp
$Comp
L LED D2
U 1 1 56B37F1B
P 4050 7100
F 0 "D2" V 4100 6950 50  0000 C CNN
F 1 "GREEN" V 4000 6900 50  0000 C CNN
F 2 "LEDs:LED_0805" H 4050 7100 50  0001 C CNN
F 3 "" H 4050 7100 50  0000 C CNN
	1    4050 7100
	0    -1   -1   0   
$EndComp
$Comp
L R R5
U 1 1 56B37FFD
P 4500 6750
F 0 "R5" H 4650 6800 50  0000 C CNN
F 1 "220" H 4650 6700 50  0000 C CNN
F 2 "Resistors_SMD:R_0805_HandSoldering" V 4430 6750 50  0001 C CNN
F 3 "" H 4500 6750 50  0000 C CNN
	1    4500 6750
	1    0    0    -1  
$EndComp
$Comp
L GND #PWR041
U 1 1 56B380DE
P 4500 7300
F 0 "#PWR041" H 4500 7050 50  0001 C CNN
F 1 "GND" H 4500 7150 50  0000 C CNN
F 2 "" H 4500 7300 50  0000 C CNN
F 3 "" H 4500 7300 50  0000 C CNN
	1    4500 7300
	1    0    0    -1  
$EndComp
Text Label 6500 5100 0    60   ~ 0
LED_GREEN
Text Label 6500 5200 0    60   ~ 0
LED_RED
Text Label 9000 1650 0    60   ~ 0
nSRST
Text Label 9000 1750 0    60   ~ 0
RTCK
Text Label 9000 1550 0    60   ~ 0
nTRST
$Comp
L ST2378 U2
U 1 1 56B3B44F
P 8200 1500
F 0 "U2" H 7700 2050 60  0000 C CNN
F 1 "ST2378" H 7800 800 60  0000 C CNN
F 2 "Housings_SSOP:TSSOP-20_4.4x6.5mm_Pitch0.65mm" H 8300 1450 60  0001 C CNN
F 3 "" H 8300 1450 60  0000 C CNN
	1    8200 1500
	-1   0    0    -1  
$EndComp
Text Label 8350 800  0    60   ~ 0
HIKEY_1V8
$Comp
L +3.3V #PWR042
U 1 1 56B3B631
P 8050 800
F 0 "#PWR042" H 8050 650 50  0001 C CNN
F 1 "+3.3V" H 8050 940 50  0000 C CNN
F 2 "" H 8050 800 50  0000 C CNN
F 3 "" H 8050 800 50  0000 C CNN
	1    8050 800 
	1    0    0    -1  
$EndComp
$Comp
L GND #PWR043
U 1 1 56B3B702
P 8200 2300
F 0 "#PWR043" H 8200 2050 50  0001 C CNN
F 1 "GND" H 8200 2150 50  0000 C CNN
F 2 "" H 8200 2300 50  0000 C CNN
F 3 "" H 8200 2300 50  0000 C CNN
	1    8200 2300
	1    0    0    -1  
$EndComp
$Comp
L +3.3V #PWR044
U 1 1 56B56D14
P 5900 850
F 0 "#PWR044" H 5900 700 50  0001 C CNN
F 1 "+3.3V" H 5900 990 50  0000 C CNN
F 2 "" H 5900 850 50  0000 C CNN
F 3 "" H 5900 850 50  0000 C CNN
	1    5900 850 
	1    0    0    -1  
$EndComp
$Comp
L +3.3V #PWR045
U 1 1 56B56DEB
P 3100 6900
F 0 "#PWR045" H 3100 6750 50  0001 C CNN
F 1 "+3.3V" H 3100 7040 50  0000 C CNN
F 2 "" H 3100 6900 50  0000 C CNN
F 3 "" H 3100 6900 50  0000 C CNN
	1    3100 6900
	1    0    0    -1  
$EndComp
Text Label 9050 2550 2    60   ~ 0
UART0_TX_3.3
Text Label 9050 2650 2    60   ~ 0
UART0_RX_3.3
Text Label 9050 2950 2    60   ~ 0
UART3_TX_3.3
Text Label 9050 3050 2    60   ~ 0
UART3_RX_3.3
Text Label 9050 2750 2    60   ~ 0
UART2_TX_3.3
Text Label 9050 2850 2    60   ~ 0
UART2_RX_3.3
Text Label 7350 1150 2    60   ~ 0
TCK_3.3
Text Label 7350 1250 2    60   ~ 0
TDI_3.3
Text Label 7350 1350 2    60   ~ 0
TDO_3.3
Text Label 7350 1450 2    60   ~ 0
TMS_3.3
Text Label 7350 1550 2    60   ~ 0
nTRST_3.3
Text Label 7350 1650 2    60   ~ 0
nSRST_3.3
Text Label 7350 1750 2    60   ~ 0
RTCK_3.3
Text Label 8850 4800 0    60   ~ 0
nSRST
Text Label 8850 5350 0    60   ~ 0
HIKEY_1V8
Text Label 8350 4400 2    60   ~ 0
HIKEY_1V8
Text Label 6500 2700 0    60   ~ 0
UART0_TX_3.3
Text Label 6500 2800 0    60   ~ 0
UART0_RX_3.3
Text Label 6500 3600 0    60   ~ 0
UART2_TX_3.3
Text Label 6500 3700 0    60   ~ 0
UART2_RX_3.3
Text Label 6500 4500 0    60   ~ 0
UART3_TX_3.3
Text Label 6500 4600 0    60   ~ 0
UART3_RX_3.3
Text Label 6500 1800 0    60   ~ 0
TCK_3.3
Text Label 6500 1900 0    60   ~ 0
TDI_3.3
Text Label 6500 2000 0    60   ~ 0
TDO_3.3
Text Label 6500 2100 0    60   ~ 0
TMS_3.3
Text Label 6500 2200 0    60   ~ 0
nTRST_3.3
Text Label 6500 2300 0    60   ~ 0
nSRST_3.3
Text Label 6500 2400 0    60   ~ 0
RTCK_3.3
Text Notes 8400 4150 0    60   ~ 0
TX / RX cross made on\nconnectors instead of FTDI
$Comp
L GND #PWR046
U 1 1 56E371D2
P 8850 5450
F 0 "#PWR046" H 8850 5200 50  0001 C CNN
F 1 "GND" H 8850 5300 50  0000 C CNN
F 2 "" H 8850 5450 50  0000 C CNN
F 3 "" H 8850 5450 50  0000 C CNN
	1    8850 5450
	1    0    0    -1  
$EndComp
$Comp
L GND #PWR047
U 1 1 56E37805
P 8250 4900
F 0 "#PWR047" H 8250 4650 50  0001 C CNN
F 1 "GND" H 8250 4750 50  0000 C CNN
F 2 "" H 8250 4900 50  0000 C CNN
F 3 "" H 8250 4900 50  0000 C CNN
	1    8250 4900
	1    0    0    -1  
$EndComp
$Comp
L GND #PWR048
U 1 1 56E37D10
P 9900 6150
F 0 "#PWR048" H 9900 5900 50  0001 C CNN
F 1 "GND" H 9900 6000 50  0000 C CNN
F 2 "" H 9900 6150 50  0000 C CNN
F 3 "" H 9900 6150 50  0000 C CNN
	1    9900 6150
	1    0    0    -1  
$EndComp
$Comp
L GND #PWR049
U 1 1 56E37BFD
P 10400 6150
F 0 "#PWR049" H 10400 5900 50  0001 C CNN
F 1 "GND" H 10400 6000 50  0000 C CNN
F 2 "" H 10400 6150 50  0000 C CNN
F 3 "" H 10400 6150 50  0000 C CNN
	1    10400 6150
	1    0    0    -1  
$EndComp
$Comp
L GND #PWR050
U 1 1 56E3AC53
P 9900 4250
F 0 "#PWR050" H 9900 4000 50  0001 C CNN
F 1 "GND" H 9900 4100 50  0000 C CNN
F 2 "" H 9900 4250 50  0000 C CNN
F 3 "" H 9900 4250 50  0000 C CNN
	1    9900 4250
	-1   0    0    1   
$EndComp
$Comp
L GND #PWR051
U 1 1 56E3B978
P 10400 4250
F 0 "#PWR051" H 10400 4000 50  0001 C CNN
F 1 "GND" H 10400 4100 50  0000 C CNN
F 2 "" H 10400 4250 50  0000 C CNN
F 3 "" H 10400 4250 50  0000 C CNN
	1    10400 4250
	-1   0    0    1   
$EndComp
Wire Wire Line
	1100 1150 1250 1150
Connection ~ 1700 850 
Wire Wire Line
	2600 850  3350 850 
Connection ~ 2800 850 
Connection ~ 3050 850 
Connection ~ 3350 850 
Wire Wire Line
	3850 2000 4100 2000
Connection ~ 1850 1950
Connection ~ 2150 1950
Wire Wire Line
	1850 1950 2150 1950
Wire Wire Line
	4100 1800 4100 1650
Wire Wire Line
	2100 2600 1850 2600
Connection ~ 1850 2600
Connection ~ 2100 2600
Wire Wire Line
	3850 1150 3850 2000
Connection ~ 3850 2000
Wire Wire Line
	4100 3300 3700 3300
Wire Wire Line
	3800 3100 3800 3400
Wire Wire Line
	3400 3300 3300 3300
Wire Wire Line
	3300 3300 3300 3200
Wire Wire Line
	1850 6850 1500 6850
Wire Wire Line
	1500 6850 1500 6750
Wire Wire Line
	1850 6950 1200 6950
Wire Wire Line
	1200 6950 1200 6750
Wire Wire Line
	650  7050 1850 7050
Connection ~ 900  6750
Wire Wire Line
	1850 7150 900  7150
Wire Wire Line
	900  7150 900  6750
Wire Wire Line
	900  6750 650  6750
Wire Wire Line
	3250 4900 3250 5400
Wire Wire Line
	3250 5300 3350 5300
Wire Wire Line
	3650 5300 4100 5300
Wire Wire Line
	3750 5300 3750 5400
Wire Wire Line
	4100 4900 3250 4900
Connection ~ 3250 5300
Connection ~ 3750 5300
Wire Wire Line
	4100 5500 4100 5900
Wire Wire Line
	1100 850  1800 850 
Wire Wire Line
	8200 800  8350 800 
Wire Wire Line
	9900 2200 10050 2200
Connection ~ 8350 800 
Connection ~ 10050 2200
Wire Wire Line
	3850 1150 5300 1150
Wire Wire Line
	5100 1150 5100 1500
Wire Wire Line
	8350 4800 8250 4800
Wire Wire Line
	8250 4500 8250 4900
Wire Wire Line
	8350 4600 8250 4600
Connection ~ 8250 4800
Wire Wire Line
	8350 4500 8250 4500
Connection ~ 8250 4600
Wire Wire Line
	5200 1150 5200 1500
Connection ~ 5100 1150
Wire Wire Line
	5300 1150 5300 1500
Connection ~ 5200 1150
Wire Wire Line
	5500 1500 5500 1400
Wire Wire Line
	5600 1500 5600 1400
Wire Wire Line
	5500 1400 5800 1400
Wire Wire Line
	5700 1400 5700 1500
Connection ~ 5600 1400
Wire Wire Line
	5800 1400 5800 1500
Connection ~ 5700 1400
Connection ~ 5500 1400
Wire Wire Line
	4700 5800 4700 5900
Wire Wire Line
	4100 5900 5600 5900
Wire Wire Line
	4900 5900 4900 5800
Connection ~ 4700 5900
Wire Wire Line
	5000 5900 5000 5800
Connection ~ 4900 5900
Wire Wire Line
	5100 5900 5100 5800
Connection ~ 5000 5900
Wire Wire Line
	5200 5900 5200 5800
Connection ~ 5100 5900
Wire Wire Line
	5300 5900 5300 5800
Connection ~ 5200 5900
Wire Wire Line
	5400 5900 5400 5800
Connection ~ 5300 5900
Wire Wire Line
	5500 5900 5500 5800
Connection ~ 5400 5900
Wire Wire Line
	5600 5900 5600 5800
Connection ~ 5500 5900
$Comp
L C C11
U 1 1 56E46BDB
P 10150 1650
F 0 "C11" H 10175 1750 50  0000 L CNN
F 1 "100n" H 10175 1550 50  0000 L CNN
F 2 "Capacitors_SMD:C_0805_HandSoldering" H 10188 1500 50  0001 C CNN
F 3 "" H 10150 1650 50  0000 C CNN
	1    10150 1650
	1    0    0    -1  
$EndComp
$Comp
L CP C14
U 1 1 56E46CA0
P 10450 1650
F 0 "C14" H 10475 1750 50  0000 L CNN
F 1 "10u" H 10475 1550 50  0000 L CNN
F 2 "Capacitors_SMD:C_0805_HandSoldering" H 10488 1500 50  0001 C CNN
F 3 "" H 10450 1650 50  0000 C CNN
	1    10450 1650
	1    0    0    -1  
$EndComp
$Comp
L GND #PWR052
U 1 1 56E46D8A
P 10150 1800
F 0 "#PWR052" H 10150 1550 50  0001 C CNN
F 1 "GND" H 10150 1650 50  0000 C CNN
F 2 "" H 10150 1800 50  0000 C CNN
F 3 "" H 10150 1800 50  0000 C CNN
	1    10150 1800
	1    0    0    -1  
$EndComp
$Comp
L GND #PWR053
U 1 1 56E46E1F
P 10450 1800
F 0 "#PWR053" H 10450 1550 50  0001 C CNN
F 1 "GND" H 10450 1650 50  0000 C CNN
F 2 "" H 10450 1800 50  0000 C CNN
F 3 "" H 10450 1800 50  0000 C CNN
	1    10450 1800
	1    0    0    -1  
$EndComp
$Comp
L C C9
U 1 1 56E47C6D
P 9450 1150
F 0 "C9" H 9475 1250 50  0000 L CNN
F 1 "100n" H 9475 1050 50  0000 L CNN
F 2 "Capacitors_SMD:C_0805_HandSoldering" H 9488 1000 50  0001 C CNN
F 3 "" H 9450 1150 50  0000 C CNN
	1    9450 1150
	1    0    0    -1  
$EndComp
$Comp
L CP C10
U 1 1 56E47C73
P 9750 1150
F 0 "C10" H 9775 1250 50  0000 L CNN
F 1 "10u" H 9775 1050 50  0000 L CNN
F 2 "Capacitors_SMD:C_0805_HandSoldering" H 9788 1000 50  0001 C CNN
F 3 "" H 9750 1150 50  0000 C CNN
	1    9750 1150
	1    0    0    -1  
$EndComp
$Comp
L GND #PWR054
U 1 1 56E47C79
P 9450 1300
F 0 "#PWR054" H 9450 1050 50  0001 C CNN
F 1 "GND" H 9450 1150 50  0000 C CNN
F 2 "" H 9450 1300 50  0000 C CNN
F 3 "" H 9450 1300 50  0000 C CNN
	1    9450 1300
	1    0    0    -1  
$EndComp
$Comp
L GND #PWR055
U 1 1 56E47C7F
P 9750 1300
F 0 "#PWR055" H 9750 1050 50  0001 C CNN
F 1 "GND" H 9750 1150 50  0000 C CNN
F 2 "" H 9750 1300 50  0000 C CNN
F 3 "" H 9750 1300 50  0000 C CNN
	1    9750 1300
	1    0    0    -1  
$EndComp
Text Label 10450 1400 0    60   ~ 0
HIKEY_1V8
Wire Wire Line
	10150 1500 10150 1400
Wire Wire Line
	10150 1400 10450 1400
Wire Wire Line
	10450 1400 10450 1500
Connection ~ 10450 1400
$Comp
L +3.3V #PWR056
U 1 1 56E49FA7
P 9750 1000
F 0 "#PWR056" H 9750 850 50  0001 C CNN
F 1 "+3.3V" H 9750 1140 50  0000 C CNN
F 2 "" H 9750 1000 50  0000 C CNN
F 3 "" H 9750 1000 50  0000 C CNN
	1    9750 1000
	1    0    0    -1  
$EndComp
$Comp
L +3.3V #PWR057
U 1 1 56E4A136
P 9450 1000
F 0 "#PWR057" H 9450 850 50  0001 C CNN
F 1 "+3.3V" H 9450 1140 50  0000 C CNN
F 2 "" H 9450 1000 50  0000 C CNN
F 3 "" H 9450 1000 50  0000 C CNN
	1    9450 1000
	1    0    0    -1  
$EndComp
$Comp
L CONN_01X08 P1
U 1 1 56E18D5A
P 6650 7000
F 0 "P1" H 6650 7450 50  0000 C CNN
F 1 "UARTS" H 6650 6400 50  0000 C CNN
F 2 "Pin_Headers:Pin_Header_Straight_1x08" H 6450 7650 50  0001 C CNN
F 3 "" H 6650 7000 50  0000 C CNN
	1    6650 7000
	1    0    0    -1  
$EndComp
Text Label 6450 6650 2    60   ~ 0
HIKEY_1V8
$Comp
L GND #PWR058
U 1 1 56E190E3
P 6450 7350
F 0 "#PWR058" H 6450 7100 50  0001 C CNN
F 1 "GND" H 6450 7200 50  0000 C CNN
F 2 "" H 6450 7350 50  0000 C CNN
F 3 "" H 6450 7350 50  0000 C CNN
	1    6450 7350
	1    0    0    -1  
$EndComp
Text Label 6450 6850 2    60   ~ 0
UART0_TX
Text Label 6450 6750 2    60   ~ 0
UART0_RX
Text Label 6450 7050 2    60   ~ 0
UART2_TX
Text Label 6450 6950 2    60   ~ 0
UART2_RX
Text Label 6450 7250 2    60   ~ 0
UART3_TX
Text Label 6450 7150 2    60   ~ 0
UART3_RX
$Comp
L Q_NMOS_GSD Q2
U 1 1 56E2B98C
P 2000 5600
F 0 "Q2" H 2300 5650 50  0000 R CNN
F 1 "Q_NMOS_GSD" H 2650 5550 50  0001 R CNN
F 2 "TO_SOT_Packages_SMD:SOT-23" H 2200 5700 50  0001 C CNN
F 3 "" H 2000 5600 50  0000 C CNN
	1    2000 5600
	1    0    0    -1  
$EndComp
$Comp
L Q_NMOS_GSD Q1
U 1 1 56E2BA71
P 1350 5000
F 0 "Q1" H 1650 5050 50  0000 R CNN
F 1 "Q_NMOS_GSD" H 2000 4950 50  0001 R CNN
F 2 "TO_SOT_Packages_SMD:SOT-23" H 1550 5100 50  0001 C CNN
F 3 "" H 1350 5000 50  0000 C CNN
	1    1350 5000
	1    0    0    -1  
$EndComp
$Comp
L GND #PWR059
U 1 1 56E2BB69
P 2100 5800
F 0 "#PWR059" H 2100 5550 50  0001 C CNN
F 1 "GND" H 2100 5650 50  0000 C CNN
F 2 "" H 2100 5800 50  0000 C CNN
F 3 "" H 2100 5800 50  0000 C CNN
	1    2100 5800
	1    0    0    -1  
$EndComp
$Comp
L GND #PWR060
U 1 1 56E2BCA6
P 1450 5200
F 0 "#PWR060" H 1450 4950 50  0001 C CNN
F 1 "GND" H 1450 5050 50  0000 C CNN
F 2 "" H 1450 5200 50  0000 C CNN
F 3 "" H 1450 5200 50  0000 C CNN
	1    1450 5200
	1    0    0    -1  
$EndComp
$Comp
L GND #PWR061
U 1 1 56E2CB07
P 1900 3650
F 0 "#PWR061" H 1900 3400 50  0001 C CNN
F 1 "GND" H 1900 3500 50  0000 C CNN
F 2 "" H 1900 3650 50  0000 C CNN
F 3 "" H 1900 3650 50  0000 C CNN
	1    1900 3650
	1    0    0    -1  
$EndComp
Wire Wire Line
	1800 3550 1900 3550
Wire Wire Line
	1900 3450 1900 3650
Wire Wire Line
	1800 3450 1900 3450
Connection ~ 1900 3550
Text Label 1450 4800 0    60   ~ 0
BOOT_SEL_A
Text Label 2100 5400 0    60   ~ 0
EXP_RSTOUT_N
$Comp
L R R6
U 1 1 56E2EEE1
P 1150 5150
F 0 "R6" H 1300 5200 50  0000 C CNN
F 1 "10k" H 1300 5100 50  0000 C CNN
F 2 "Resistors_SMD:R_0805_HandSoldering" V 1080 5150 50  0001 C CNN
F 3 "" H 1150 5150 50  0000 C CNN
	1    1150 5150
	-1   0    0    1   
$EndComp
$Comp
L R R7
U 1 1 56E2EFC7
P 1800 5750
F 0 "R7" H 1950 5800 50  0000 C CNN
F 1 "10k" H 1950 5700 50  0000 C CNN
F 2 "Resistors_SMD:R_0805_HandSoldering" V 1730 5750 50  0001 C CNN
F 3 "" H 1800 5750 50  0000 C CNN
	1    1800 5750
	-1   0    0    1   
$EndComp
$Comp
L GND #PWR062
U 1 1 56E2F24D
P 1150 5300
F 0 "#PWR062" H 1150 5050 50  0001 C CNN
F 1 "GND" H 1150 5150 50  0000 C CNN
F 2 "" H 1150 5300 50  0000 C CNN
F 3 "" H 1150 5300 50  0000 C CNN
	1    1150 5300
	1    0    0    -1  
$EndComp
$Comp
L GND #PWR063
U 1 1 56E2F2F7
P 1800 5900
F 0 "#PWR063" H 1800 5650 50  0001 C CNN
F 1 "GND" H 1800 5750 50  0000 C CNN
F 2 "" H 1800 5900 50  0000 C CNN
F 3 "" H 1800 5900 50  0000 C CNN
	1    1800 5900
	1    0    0    -1  
$EndComp
Text Label 1150 5000 2    60   ~ 0
SOFT_BOOT
Text Label 1800 5600 2    60   ~ 0
SOFT_RESET
Connection ~ 1800 5600
Connection ~ 1150 5000
Text Label 6500 4900 0    60   ~ 0
SOFT_BOOT
Text Label 6500 5000 0    60   ~ 0
SOFT_RESET
Text Label 4050 6600 2    60   ~ 0
LED_GREEN
Text Label 4500 6600 0    60   ~ 0
LED_RED
$Comp
L CONN_01X03 P2
U 1 1 56E363D8
P 5700 7000
F 0 "P2" H 5700 7200 50  0000 C CNN
F 1 "EXT_GPIO" H 5700 6700 50  0000 C CNN
F 2 "Pin_Headers:Pin_Header_Straight_1x03" H 5700 7000 50  0001 C CNN
F 3 "" H 5700 7000 50  0000 C CNN
	1    5700 7000
	1    0    0    -1  
$EndComp
$Comp
L GND #PWR064
U 1 1 56E36794
P 5400 7200
F 0 "#PWR064" H 5400 6950 50  0001 C CNN
F 1 "GND" H 5400 7050 50  0000 C CNN
F 2 "" H 5400 7200 50  0000 C CNN
F 3 "" H 5400 7200 50  0000 C CNN
	1    5400 7200
	1    0    0    -1  
$EndComp
Wire Wire Line
	5500 7000 5400 7000
Wire Wire Line
	5400 7000 5400 7200
Text Label 5500 6900 2    60   ~ 0
EXT_GPIO_1
Text Label 5500 7100 2    60   ~ 0
EXT_GPIO_2
Text Label 6500 4700 0    60   ~ 0
EXT_GPIO_1
Text Label 6500 4800 0    60   ~ 0
EXT_GPIO_2
Text Notes 2100 4950 0    60   ~ 0
NMOS: AP2302GN-HF-3\nVth = 1.2V (SOT23)
$Comp
L GND #PWR065
U 1 1 56E4AD8F
P 8250 6300
F 0 "#PWR065" H 8250 6050 50  0001 C CNN
F 1 "GND" H 8250 6150 50  0000 C CNN
F 2 "" H 8250 6300 50  0000 C CNN
F 3 "" H 8250 6300 50  0000 C CNN
	1    8250 6300
	1    0    0    -1  
$EndComp
Wire Wire Line
	8350 6200 8250 6200
Wire Wire Line
	8250 6100 8250 6300
Wire Wire Line
	8350 6100 8250 6100
Connection ~ 8250 6200
$EndSCHEMATC
